<svg width="16" height="16" viewBox="0 0 16 16" fill="none" xmlns="http://www.w3.org/2000/svg">
<path d="M13.3334 3.33203L12.7368 14.07C12.6974 14.778 12.1121 15.332 11.4028 15.332H4.59742C3.88808 15.332 3.30275 14.778 3.26341 14.07L2.66675 3.33203" stroke="#E15F19" stroke-width="1.33333" stroke-linecap="round" stroke-linejoin="round"/>
<path d="M10.0001 0.666016H6.00008C5.26341 0.666016 4.66675 1.26268 4.66675 1.99935V3.33268H11.3334V1.99935C11.3334 1.26268 10.7368 0.666016 10.0001 0.666016Z" stroke="#E15F19" stroke-width="1.33333" stroke-linecap="round" stroke-linejoin="round"/>
<path d="M2 3.33203H14" stroke="#E15F19" stroke-width="1.33333" stroke-linecap="round" stroke-linejoin="round"/>
</svg>
